{
  "m1": {
    "time-1": {
      "old_start_time": "2015-09-11 22:00:00",
      "old_end_time": "2015-09-11 23:00:00",
      "start_time": "2015-09-11 03:00:00",
      "end_time": "2015-09-11 04:00:00" ,
      "data_genre": "Sports, non-event",
      "span_title": "Real Madrid TV",
      "prog_title": "Advertisement 1",
      "prog_type": "Chase, BOA",
      "prog_hour_begin": "3:00",
      "prog_hour_end": "4:00"
      },
    "time-2": {
      "old_start_time": "2015-09-11 22:00:00",
      "old_end_time": "2015-09-11 23:00:00",
      "start_time": "2015-09-11 04:00:00",
      "end_time": "2015-09-11 05:00:00" ,
      "data_genre": "Sports, non-event",
      "span_title": "Real Madrid TV",
      "prog_title": "Advertisement 2",
      "prog_type": "Sports, non-event",
      "prog_hour_begin": "4:00",
      "prog_hour_end": "5:00"
      },
      "time-3": {
        "old_start_time": "2015-09-11 22:00:00",
        "old_end_time": "2015-09-11 23:00:00",
        "start_time": "2015-09-11 04:00:00",
        "end_time": "2015-09-11 05:00:00" ,
        "data_genre": "Sports, non-event",
        "span_title": "Real Madrid TV",
        "prog_title": "Advertisement 3",
        "prog_type": "Sports, non-event",
        "prog_hour_begin": "5:00",
        "prog_hour_end": "6:00"
      },
      "time-4": {
        "old_start_time": "2015-09-11 22:00:00",
        "old_end_time": "2015-09-11 23:00:00",
        "start_time": "2015-09-11 06:00:00",
        "end_time": "2015-09-11 07:00:00" ,
        "data_genre": "Sports, non-event",
        "span_title": "Real Madrid TV",
        "prog_title": "Advertisement 4",
        "prog_type": "Sports, non-event",
        "prog_hour_begin": "6:00",
        "prog_hour_end": "7:00"
      },
      "time-5": {
        "old_start_time": "2015-09-11 22:00:00",
        "old_end_time": "2015-09-11 23:00:00",
        "start_time": "2015-09-11 07:00:00",
        "end_time": "2015-09-11 08:00:00" ,
        "data_genre": "Sports, non-event",
        "span_title": "Real Madrid TV",
        "prog_title": "Advertisement 5",
        "prog_type": "Sports, non-event",
        "prog_hour_begin": "7:00",
        "prog_hour_end": "8:00"
      }

  }

}