{
  "aaData": [{
    "name": "Charging Kiosk 1",
    "description": "Description 1",
    "notification_type": "Notification",
    "action": "<div class='icon-eye icon_row view-notification'></div> <div class='icon-pencil icon_row edit-notification'></div> <div class='icon-trash icon_row delete'></div>"
  }, {
    "name": "Charging Kiosk 2",
    "description": "Description 2",
    "notification_type": "Image",
    "action": "<div class='icon-eye icon_row view-image'></div> <div class='icon-pencil icon_row edit-image'></div> <div class='icon-trash icon_row delete'></div>"
  }, {
    "name": "Charging Kiosk 3",
    "description": "Description 3",
    "notification_type": "URL",
    "action": "<div class='icon-eye icon_row view-url'></div> <div class='icon-pencil icon_row edit-url'></div> <div class='icon-trash icon_row delete'></div>"
  }, {
    "name": "Charging Kiosk 4",
    "description": "Description 4",
    "notification_type": "Live Feed",
    "action": "<div class='icon-eye icon_row view-live-feed'></div> <div class='icon-pencil icon_row edit-live-feed'></div> <div class='icon-trash icon_row delete'></div>"
  }]
}