{
  "aaData": [{
    "name": "MQTT",
    "action": "<div class='icon-eye icon_row view'></div> <div class='icon-pencil icon_row edit'></div> <div class='icon-trash icon_row delete'></div>"
  }, {
    "name": "Xexun",
    "action": "<div class='icon-eye icon_row view'></div> <div class='icon-pencil icon_row edit'></div> <div class='icon-trash icon_row delete'></div>"
  }, {
    "name": "XT1200",
    "action": "<div class='icon-eye icon_row view'></div> <div class='icon-pencil icon_row edit'></div> <div class='icon-trash icon_row delete'></div>"
  }]
}

// [{
//     "name": "XT1200",
//     "action": "<div class='icon-eye icon_row view'><\/div> <div class='icon-pencil icon_row edit'><\/div> <div class='icon-trash icon_row delete'><\/div>"
// }, {
//     "name": "MQTTsfdddddddddddddddddddddddddddddddddddddddddddd",
//     "action": "<div class='icon-eye icon_row view'><\/div> <div class='icon-pencil icon_row edit'><\/div> <div class='icon-trash icon_row delete'><\/div>"
// }, {
//     "name": "xexun",
//     "action": "<div class='icon-eye icon_row view'><\/div> <div class='icon-pencil icon_row edit'><\/div> <div class='icon-trash icon_row delete'><\/div>"
// }]