{
  "aaData": [{
    "name": "Charging Kiosk 1",
    "id": "12345678",
    "major_id": "1234",
    "minor_id": "5678",
    "action": "<div class='icon-eye icon_row view'></div> <div class='icon-pencil icon_row edit'></div> <div class='icon-trash icon_row delete'></div>"
  }, {
    "name": "Charging Kiosk 2",
    "id": "87654321",
    "major_id": "4321",
    "minor_id": "8765",
    "action": "<div class='icon-eye icon_row view'></div> <div class='icon-pencil icon_row edit'></div> <div class='icon-trash icon_row delete'></div>"
  }]
}