{
  "aaData": [{
    "name": "Drone 1",
    "device_type": "10/11/2015",
    "battery_level": "<div class='battery'><div style='width:90%;' class='battery-level high'></div><i class='battery-text'>90%</i></div>",
    "action": "<div class='icon-eye icon_row view'></div> <div class='icon-pencil icon_row edit'></div><div class='fa fa-wrench icon_row maintenance'></div><div class='fa fa-crosshairs icon_row incident'></div><div class='icon-trash icon_row delete'></div>"
  }, {
    "name": "Drone Kiosk 2",
    "device_type": "25/12/2015",
    "battery_level": "<div class='battery'><div style='width:20%;' class='battery-level low'></div><i class='battery-text'>20%</i></div>",
    "action": "<div class='icon-eye icon_row view'></div> <div class='icon-pencil icon_row edit'></div><div class='fa fa-wrench icon_row maintenance'></div><div class='fa fa-crosshairs icon_row incident'></div><div class='icon-trash icon_row delete'></div>"
  }]
}